%YAML 1.1
%TAG !u! tag:unity3d.com,2011:
--- !u!162 &1
EditorUserSettings:
  m_ObjectHideFlags: 0
  serializedVersion: 4
  m_ConfigSettings:
    RecentlyUsedScenePath-0:
      value: 22424703114646680e0b0227036c6c111b07142f1f2b233e2867083debf42d
      flags: 0
    RecentlyUsedScenePath-1:
      value: 2242470311464676144e1c2313285e171304570e2d3a2d0f3d201a7cc4c40b1bb2b662cda92f31352d1b
      flags: 0
    RecentlyUsedScenePath-2:
      value: 2242470311464678050f1e2313375a022944497a7c7a692325260a7df7ee3d2cfb
      flags: 0
    RecentlyUsedScenePath-3:
      value: 22424703114646680e0b0227036c72111f19352f223d68252320092a
      flags: 0
    RecentlyUsedScenePath-4:
      value: 2242470311464678223e356223136d39313f2c657e0c661325280f32e1f4312aa2aa76c8f42e2d333703fa284b1a0432fd452d0efb0439081400f84004f1190708
      flags: 0
    RecentlyUsedScenePath-5:
      value: 2242470311464676144e1c2313285e171304570b3f3c343f23280827e7d0353be9e631eca8681b7c1a0aee2e053d153ae04a444bd7181e191e00fc1b05b034161cca57e11fc5102fc81c12cb8308dfeac1cf
      flags: 0
    RecentlyUsedScenePath-6:
      value: 22424703114646680e0b0227036c78111b12563f22213229
      flags: 0
    vcSharedLogLevel:
      value: 0d5e400f0650
      flags: 0
  m_VCAutomaticAdd: 1
  m_VCDebugCom: 0
  m_VCDebugCmd: 0
  m_VCDebugOut: 0
  m_SemanticMergeMode: 2
  m_VCShowFailedCheckout: 1
  m_VCOverwriteFailedCheckoutAssets: 1
  m_VCProjectOverlayIcons: 1
  m_VCHierarchyOverlayIcons: 1
  m_VCOtherOverlayIcons: 1
  m_VCAllowAsyncUpdate: 1
